// Jest Snapshot v1, https://goo.gl/fbAQLP

exports[`Form Key Page it can navigate backwards a field can hide the backwards button 1`] = `"<span><form class=\\"p-form-index__form\\"><div><div><div><div><formcontent-stub formid=\\"formA\\" storekey=\\"formAStore\\" field=\\"[object Object]\\"></formcontent-stub></div></div></div> <div class=\\"p-form-index__buttons\\"><!----> <!----></div></div></form></span>"`;

exports[`Form Key Page it can navigate backwards can navigate backwards 1`] = `
"<span><form class=\\"p-form-index__form\\"><div><div><div><div><formcontent-stub formid=\\"formA\\" storekey=\\"formAStore\\" field=\\"[object Object]\\"></formcontent-stub></div></div></div> <div class=\\"p-form-index__buttons\\"><button-stub theme=\\"primary\\" width=\\"wide\\" type=\\"submit\\">
          pages.form.proceed
        </button-stub> <button-stub theme=\\"ghost\\" width=\\"wide\\" type=\\"reset\\">
          pages.form.back
        </button-stub></div></div></form></span>"
`;

exports[`Form Key Page it can navigate backwards can navigate backwards depending on function 1`] = `
"<span><form class=\\"p-form-index__form\\"><div><div><div><div><formcontent-stub formid=\\"formA\\" storekey=\\"formAStore\\" field=\\"[object Object]\\"></formcontent-stub></div></div></div> <div class=\\"p-form-index__buttons\\"><button-stub theme=\\"primary\\" width=\\"wide\\" type=\\"submit\\">
          pages.form.proceed
        </button-stub> <button-stub theme=\\"ghost\\" width=\\"wide\\" type=\\"reset\\">
          pages.form.back
        </button-stub></div></div></form></span>"
`;

exports[`Form Key Page it can navigate backwards handles empty backwards value 1`] = `"<span><form class=\\"p-form-index__form\\"><div><div><div><div><formcontent-stub formid=\\"formA\\" storekey=\\"formAStore\\" field=\\"[object Object]\\"></formcontent-stub></div></div></div> <div class=\\"p-form-index__buttons\\"><!----> <!----></div></div></form></span>"`;

exports[`Form Key Page it can navigate forwards a field can hide the forwards button 1`] = `"<span><form class=\\"p-form-index__form\\"><div><div><div><div><formcontent-stub formid=\\"formA\\" storekey=\\"formAStore\\" field=\\"[object Object]\\"></formcontent-stub></div></div></div> <div class=\\"p-form-index__buttons\\"><!----> <!----></div></div></form></span>"`;

exports[`Form Key Page it can navigate forwards can navigate forwards 1`] = `
"<span><form class=\\"p-form-index__form\\"><div><div><div><div><formcontent-stub formid=\\"formA\\" storekey=\\"formAStore\\" field=\\"[object Object]\\"></formcontent-stub></div></div></div> <div class=\\"p-form-index__buttons\\"><button-stub theme=\\"primary\\" width=\\"wide\\" type=\\"submit\\">
          pages.form.proceed
        </button-stub> <button-stub theme=\\"ghost\\" width=\\"wide\\" type=\\"reset\\">
          pages.form.back
        </button-stub></div></div></form></span>"
`;

exports[`Form Key Page it can navigate forwards can navigate forwards depending on function 1`] = `
"<span><form class=\\"p-form-index__form\\"><div><div><div><div><formcontent-stub formid=\\"formA\\" storekey=\\"formAStore\\" field=\\"[object Object]\\"></formcontent-stub></div></div></div> <div class=\\"p-form-index__buttons\\"><button-stub theme=\\"primary\\" width=\\"wide\\" type=\\"submit\\">
          pages.form.proceed
        </button-stub> <button-stub theme=\\"ghost\\" width=\\"wide\\" type=\\"reset\\">
          pages.form.back
        </button-stub></div></div></form></span>"
`;

exports[`Form Key Page it can navigate forwards handles empty forwards value 1`] = `"<span><form class=\\"p-form-index__form\\"><div><div><div><div><formcontent-stub formid=\\"formA\\" storekey=\\"formAStore\\" field=\\"[object Object]\\"></formcontent-stub></div></div></div> <div class=\\"p-form-index__buttons\\"><!----> <!----></div></div></form></span>"`;

exports[`Form Key Page it chan navigate back from one form to the previous form displays the back button 1`] = `
"<span><form class=\\"p-form-index__form\\"><div><!----> <div class=\\"p-form-index__buttons\\"><!----> <button-stub theme=\\"ghost\\" width=\\"wide\\" type=\\"reset\\">
          pages.form.back
        </button-stub></div></div></form></span>"
`;

exports[`Form Key Page it chan navigate back from one form to the previous form navigates back to the previous form on button click 1`] = `
"<span><form class=\\"p-form-index__form\\"><div><!----> <div class=\\"p-form-index__buttons\\"><!----> <button-stub theme=\\"ghost\\" width=\\"wide\\" type=\\"reset\\">
          pages.form.back
        </button-stub></div></div></form></span>"
`;

exports[`Form Key Page renders 1`] = `
"<span><form class=\\"p-form-index__form\\"><div><!----> <div class=\\"p-form-index__buttons\\"><button-stub theme=\\"primary\\" width=\\"wide\\" type=\\"submit\\">
          pages.form.proceed
        </button-stub> <button-stub theme=\\"ghost\\" width=\\"wide\\" type=\\"reset\\">
          pages.form.back
        </button-stub></div></div></form></span>"
`;

exports[`Form Key Page renders the different fields does not render a hidden field 1`] = `"<span><form class=\\"p-form-index__form\\"><div><div><div><div><formcontent-stub formid=\\"formA\\" storekey=\\"formAStore\\" field=\\"[object Object]\\"></formcontent-stub></div></div></div> <div class=\\"p-form-index__buttons\\"><!----> <!----></div></div></form></span>"`;

exports[`Form Key Page renders the different fields renders a EmailDisplay Component 1`] = `"<span><form class=\\"p-form-index__form\\"><div><div><div><div><div><emaildisplay-stub responsedata=\\"[object Object]\\" formid=\\"formA\\"></emaildisplay-stub></div></div></div></div> <div class=\\"p-form-index__buttons\\"><!----> <!----></div></div></form></span>"`;

exports[`Form Key Page renders the different fields renders a FetchHealthOffice Component 1`] = `"<span><form class=\\"p-form-index__form\\"><div><div><div><div><div class=\\"health-offices\\"><fetch-health-office-stub zip=\\"zip\\"></fetch-health-office-stub></div></div></div></div> <div class=\\"p-form-index__buttons\\"><!----> <!----></div></div></form></span>"`;

exports[`Form Key Page renders the different fields renders a FormReviewer Component 1`] = `"<span><form class=\\"p-form-index__form\\"><div><div><div><div><div><formreviewer-stub fields=\\"[object Object],[object Object],[object Object],[object Object],[object Object]\\" storekey=\\"formAStore\\" formid=\\"formA\\" additionalfields=\\"\\" active=\\"true\\"></formreviewer-stub></div></div></div></div> <div class=\\"p-form-index__buttons\\"><!----> <!----></div></div></form></span>"`;

exports[`Form Key Page renders the different fields renders a FormReviewer Component 2`] = `
Array [
  Object {
    "alias": "a-single-field",
    "key": "aSingleField",
    "stepId": "sectionMoreFields",
    "type": "text",
    "value": undefined,
  },
  Object {
    "alias": "another-single-field",
    "key": "anotherSingleField",
    "stepId": "sectionMoreFields",
    "type": "text",
    "value": undefined,
  },
  Object {
    "alias": "a-multi-field",
    "key": "aMultiField",
    "stepId": "multiField",
    "type": "text",
    "value": undefined,
  },
  Object {
    "alias": "a-multi-field",
    "key": "bMultiField",
    "stepId": "multiField",
    "type": "text",
    "value": undefined,
  },
  Object {
    "alias": "a-single-field-with-on-change",
    "key": "aSingleFieldWithOnChange",
    "onChange": [Function],
    "stepId": "fieldWithOnChange",
    "type": "text",
    "value": undefined,
  },
]
`;

exports[`Form Key Page renders the different fields renders a FormSubmitter Component 1`] = `"<span><form class=\\"p-form-index__form\\"><div><div><div><div><div><formsubmitter-stub data=\\"[object Object]\\" url=\\"/test/endpoint\\" active=\\"true\\" form-id=\\"formA\\"></formsubmitter-stub></div></div></div></div> <div class=\\"p-form-index__buttons\\"><!----> <!----></div></div></form></span>"`;

exports[`Form Key Page renders the different fields renders a Loading Component 1`] = `"<span><form class=\\"p-form-index__form\\"><div><div><div><div><div><loading-stub></loading-stub></div></div></div></div> <div class=\\"p-form-index__buttons\\"><!----> <!----></div></div></form></span>"`;

exports[`Form Key Page renders the different fields renders a QuarantineDate Component 1`] = `"<span><form class=\\"p-form-index__form\\"><div><div><div><div><div><quarantinedate-stub date=\\"[object Object]\\" quarantineduration=\\"14\\"></quarantinedate-stub></div></div></div></div> <div class=\\"p-form-index__buttons\\"><!----> <!----></div></div></form></span>"`;

exports[`Form Key Page renders the different fields renders a StartOverButton Component 1`] = `"<span><form class=\\"p-form-index__form\\"><div><div><div><div><div><startoverbutton-stub></startoverbutton-stub></div></div></div></div> <div class=\\"p-form-index__buttons\\"><!----> <!----></div></div></form></span>"`;

exports[`Form Key Page renders the different fields renders a Success Component 1`] = `"<span><form class=\\"p-form-index__form\\"><div><div><div><div><div><success-stub responsedata=\\"[object Object]\\" formid=\\"formA\\"></success-stub></div></div></div></div> <div class=\\"p-form-index__buttons\\"><!----> <!----></div></div></form></span>"`;

exports[`Form Key Page renders the different fields renders a multi field 1`] = `"<span><form class=\\"p-form-index__form\\"><div><div><div><div><div class=\\"p-form-index__multi-form-content\\"><formcontent-stub multi=\\"true\\" formid=\\"formA\\" storekey=\\"formAStore\\" field=\\"[object Object]\\"></formcontent-stub><formcontent-stub multi=\\"true\\" formid=\\"formA\\" storekey=\\"formAStore\\" field=\\"[object Object]\\"></formcontent-stub></div></div></div></div> <div class=\\"p-form-index__buttons\\"><!----> <!----></div></div></form></span>"`;

exports[`Form Key Page renders the different fields renders a section with multiple fields 1`] = `"<span><form class=\\"p-form-index__form\\"><div><div><div><div><formcontent-stub formid=\\"formA\\" storekey=\\"formAStore\\" field=\\"[object Object]\\"></formcontent-stub></div></div><div><div><formcontent-stub formid=\\"formA\\" storekey=\\"formAStore\\" field=\\"[object Object]\\"></formcontent-stub></div></div></div> <div class=\\"p-form-index__buttons\\"><!----> <!----></div></div></form></span>"`;

exports[`Form Key Page renders the different fields renders a single field 1`] = `"<span><form class=\\"p-form-index__form\\"><div><div><div><div><formcontent-stub formid=\\"formA\\" storekey=\\"formAStore\\" field=\\"[object Object]\\"></formcontent-stub></div></div></div> <div class=\\"p-form-index__buttons\\"><!----> <!----></div></div></form></span>"`;
