// Jest Snapshot v1, https://goo.gl/fbAQLP

exports[`Index Page renders 1`] = `"<landingpagecontent-stub title=\\"pages.home.title\\" description=\\"pages.home.description\\" formurl=\\"/forms/master?startOver=true\\"></landingpagecontent-stub>"`;
