// Jest Snapshot v1, https://goo.gl/fbAQLP

exports[`FieldDatepicker renders 1`] = `
"<span><div class=\\"e-field\\"><div class=\\"e-field__title\\"><div class=\\"e-field__title__text\\"><label for=\\"field-myValue\\" class=\\"e-field__label\\">
        My Value Field<span class=\\"e-field__label__required-mark\\">*</span></label></div>
</div>
<vuedatepicker-stub format=\\"DD.MM.YYYY\\" format-header=\\"dddd, DD. MMMM\\" output-format=\\"DD.MM.YYYY\\" color=\\"#03DAC6\\" fullscreen-mobile=\\"\\" locale=\\"[object Object]\\" placeholder=\\"\\" visible-years-number=\\"20\\"></vuedatepicker-stub>
<div class=\\"e-field__notes\\"><small class=\\"e-field__notes__note\\">&nbsp;</small></div>
<div class=\\"e-field__icons\\">
  <!---->
</div>
</div>
</span>"
`;
